-------------------------------------------------------------------------------
Test set: com.example.dicoveryservice.DiscoveryServiceApplicationTests
-------------------------------------------------------------------------------
Tests run: 1, Failures: 0, Errors: 0, Skipped: 0, Time elapsed: 6.376 s - in com.example.dicoveryservice.DiscoveryServiceApplicationTests
