/Users/celyn/Project/2021/poc/goFluent/product-service/src/main/java/com/example/productservice/repository/ProductRepository.java
/Users/celyn/Project/2021/poc/goFluent/product-service/src/main/java/com/example/productservice/service/FakeStoreApi.java
/Users/celyn/Project/2021/poc/goFluent/product-service/src/main/java/com/example/productservice/service/ProductService.java
/Users/celyn/Project/2021/poc/goFluent/product-service/src/main/java/com/example/productservice/service/IProductService.java
/Users/celyn/Project/2021/poc/goFluent/product-service/src/main/java/com/example/productservice/ProductServiceApplication.java
/Users/celyn/Project/2021/poc/goFluent/product-service/src/main/java/com/example/productservice/controller/ProductController.java
/Users/celyn/Project/2021/poc/goFluent/product-service/src/main/java/com/example/productservice/exception/ResourceNotFoundException.java
/Users/celyn/Project/2021/poc/goFluent/product-service/src/main/java/com/example/productservice/model/Product.java
